Getting started
…
Hyperparameters

Mu

mu <- posterior_samples %>% # This is a list
  keep_at(~ grepl("^mu_", .x)) %>% # Keep list elements whose names begin with `mu_`
  do.call(cbind, .) %>% # Column-bind the list elements
  as_tibble() %>% # Matrix -> Tibble
  pivot_longer(everything(), names_to="parameter") # Reshape to long format

mu
## # A tibble: 30,000 x 2
##    parameter  value
##    <chr>      <dbl>
##  1 mu_Arew    0.165
##  2 mu_Apun    0.129
##  3 mu_K       2.73 
##  4 mu_betaF   0.536
##  5 mu_betaP  -0.363
##  6 mu_Arew    0.192
##  7 mu_Apun    0.137
##  8 mu_K       3.20 
##  9 mu_betaF   0.540
## 10 mu_betaP   0.243
## # i 29,990 more rows
…
Sigma

sigma <- posterior_samples %>% # This is a list
  pluck("sigma") %>% # This is a matrix
  set_colnames(paste0("sigma_", orl_model$modelPars)) %>% # Set column names
  as_tibble() %>% # Matrix -> Tibble
  pivot_longer(everything(), names_to="parameter") # Reshape to long format

sigma
## # A tibble: 30,000 x 2
##    parameter    value
##    <chr>        <dbl>
##  1 sigma_Arew  0.288 
##  2 sigma_Apun  0.0665
##  3 sigma_K     0.407 
##  4 sigma_betaF 0.215 
##  5 sigma_betaP 1.12  
##  6 sigma_Arew  0.0352
##  7 sigma_Apun  0.0689
##  8 sigma_K     0.0739
##  9 sigma_betaF 1.92  
## 10 sigma_betaP 0.336 
## # i 29,990 more rows
…
Model parameters

model_parameters <- posterior_samples %>% # This is a list
  keep_at(orl_model$modelPars) %>% # This is a list of matrices
  map(~ set_colnames(.x, paste0(orl_model$subjID))) %>% # Set column names for each matrix in the list
  map(as_tibble) %>% # Matrix -> Tibble for each matrix in the list
  map(~ pivot_longer(.x, everything(), names_to="subjID")) # Reshape each matrix within list to long format

model_parameters
## $Arew
## # A tibble: 24,000 x 2
##    subjID  value
##    <chr>   <dbl>
##  1 1001   0.114 
##  2 1002   0.142 
##  3 1003   0.163 
##  4 1004   0.0651
##  5 1001   0.186 
##  6 1002   0.202 
##  7 1003   0.185 
##  8 1004   0.187 
##  9 1001   0.143 
## 10 1002   0.161 
## # i 23,990 more rows
## 
## $Apun
## # A tibble: 24,000 x 2
##    subjID value
##    <chr>  <dbl>
##  1 1001   0.114
##  2 1002   0.154
##  3 1003   0.124
##  4 1004   0.108
##  5 1001   0.148
##  6 1002   0.122
##  7 1003   0.151
##  8 1004   0.158
##  9 1001   0.118
## 10 1002   0.136
## # i 23,990 more rows
## 
## $K
## # A tibble: 24,000 x 2
##    subjID value
##    <chr>  <dbl>
##  1 1001       5
##  2 1002       5
##  3 1003       5
##  4 1004       5
##  5 1001       0
##  6 1002       0
##  7 1003       0
##  8 1004       0
##  9 1001       5
## 10 1002       5
## # i 23,990 more rows
## 
## $betaF
## # A tibble: 24,000 x 2
##    subjID value
##    <chr>  <dbl>
##  1 1001   2.91 
##  2 1002   3.62 
##  3 1003   2.19 
##  4 1004   2.28 
##  5 1001   3.21 
##  6 1002   4.99 
##  7 1003   1.42 
##  8 1004   0.976
##  9 1001   2.20 
## 10 1002   3.91 
## # i 23,990 more rows
## 
## $betaP
## # A tibble: 24,000 x 2
##    subjID   value
##    <chr>    <dbl>
##  1 1001    0.299 
##  2 1002    1.06  
##  3 1003   -1.91  
##  4 1004   -2.10  
##  5 1001    0.0233
##  6 1002   -0.631 
##  7 1003    0.0240
##  8 1004    0.572 
##  9 1001    8.91  
## 10 1002    9.49  
## # i 23,990 more rows
…
beta <- posterior_samples %>%
  pluck("beta") %>% # This is a matrix and already has column names
  as_tibble() # Matrix -> Tibble

K_betas <- beta %>%
  select(starts_with("K")) %>% # Select betas corresponding to model parameter K
  pivot_longer( # Reshape to long format
    everything(),
    names_to = "parameter",
    names_transform = ~ sub("K_", replacement="", .x)
  )

K_betas
## # A tibble: 54,000 x 2
##    parameter     value
##    <chr>         <dbl>
##  1 age        3.06    
##  2 x1         0.122   
##  3 x2        -0.000365
##  4 x3         0.185   
##  5 x4        -0.0606  
##  6 sex        3.35    
##  7 cond1     -0.697   
##  8 cond2      0.557   
##  9 cond3      1.42    
## 10 age       -6.59    
## # i 53,990 more rows
…
sigma_beta <- posterior_samples %>%
  pluck("sigma_beta") %>% # This is a matrix and already has column names
  as_tibble() # Matrix -> Tibble

K_sigma_betas <- sigma_beta %>%
  select(starts_with("sigma_K")) %>%
  pivot_longer( # Reshape to long format
    everything(),
    names_to = "parameter",
    names_transform = ~ sub("sigma_K_", replacement="", .x)
  )

K_sigma_betas
## # A tibble: 54,000 x 2
##    parameter   value
##    <chr>       <dbl>
##  1 age        2.78  
##  2 x1         1.18  
##  3 x2         0.362 
##  4 x3         0.475 
##  5 x4         0.0617
##  6 sex        2.97  
##  7 cond1      2.08  
##  8 cond2      0.602 
##  9 cond3      1.07  
## 10 age       10.8   
## # i 53,990 more rows
…
